{
  "shell_port": 43601,
  "iopub_port": 33825,
  "stdin_port": 54821,
  "control_port": 59443,
  "hb_port": 43157,
  "ip": "127.0.0.1",
  "key": "fcb66c85-fd012a66ccc6a2930173e43a",
  "transport": "tcp",
  "signature_scheme": "hmac-sha256",
  "kernel_name": ""
}